Capstone Graphs
…
 Lets create a data set with only data for the black population. This will help us identify the points above the regression line.

## # A tibble: 22 x 7
##    division pop_count pop_percent stop_count stop_percent stop_to_pop_cou~
##    <chr>        <dbl>       <dbl>      <dbl>        <dbl>            <dbl>
##  1 77TH ST~    79733.      0.406      315468       0.660              3.96
##  2 CENTRAL      6915.      0.172      186300       0.341             26.9 
##  3 DEVONSH~    10797.      0.0502      23910       0.0889             2.21
##  4 FOOTHILL     9511.      0.0323      20736       0.0740             2.18
##  5 HARBOR       9822.      0.0538      29781       0.117              3.03
##  6 HOLLENB~     2261.      0.0135       5908       0.0266             2.61
##  7 HOLLYWO~     3383.      0.0495     106904       0.247             31.6 
##  8 MISSION      2745.      0.0207      21562       0.0726             7.85
##  9 NEWTON      10040.      0.0828     121622       0.312             12.1 
## 10 NORTH H~    11408.      0.0497      29817       0.107              2.61
## # ... with 12 more rows, and 1 more variable: stop_to_pop_percent <dbl>
